<?xml version="1.0" encoding="UTF-8" standalone="no"?>
<svg
   xmlns:dc="http://purl.org/dc/elements/1.1/"
   xmlns:cc="http://creativecommons.org/ns#"
   xmlns:rdf="http://www.w3.org/1999/02/22-rdf-syntax-ns#"
   xmlns:svg="http://www.w3.org/2000/svg"
   xmlns="http://www.w3.org/2000/svg"
   viewBox="0 0 601 604.72064"
   height="604.72064"
   width="601"
   xml:space="preserve"
   id="svg3796"
   version="1.1"><metadata
     id="metadata5207"><rdf:RDF><cc:Work
         rdf:about=""><dc:format>image/svg+xml</dc:format><dc:type
           rdf:resource="http://purl.org/dc/dcmitype/StillImage" /><dc:title></dc:title></cc:Work></rdf:RDF></metadata><defs
     id="defs3800" /><path
     id="path3806"
     style="fill:#ffffff;fill-opacity:1;fill-rule:nonzero;stroke:none;stroke-width:1.33333325"
     d="m 600.49998,302.36032 c 0,166.71374 -134.31199,301.85724 -299.99999,301.85724 C 134.812,604.21756 0.49999999,469.07406 0.49999999,302.36032 0.49999999,135.64659 134.812,0.5030954 300.49999,0.5030954 c 165.688,0 299.99999,135.1434946 299.99999,301.8572246 z" /><path
     id="path3808"
     style="fill:#000000;fill-opacity:1;fill-rule:nonzero;stroke:none;stroke-width:1.33333325"
     d="M 300.49999,0 C 134.54133,0 0,135.37424 0,302.36032 c 0,166.98071 134.54133,302.36033 300.49999,302.36033 165.95333,0 300.49999,-135.37962 300.49999,-302.36033 C 600.99998,135.37424 466.45332,0 300.49999,0 Z m 0,0.5030954 c 165.688,0 299.99999,135.1434946 299.99999,301.8572246 0,166.71374 -134.31199,301.85724 -299.99999,301.85724 C 134.812,604.21756 0.49999999,469.07406 0.49999999,302.36032 0.49999999,135.64659 134.812,0.5030954 300.49999,0.5030954 Z" /><path
     id="path5123"
     style="font-style:normal;font-variant:normal;font-weight:normal;font-stretch:normal;font-size:348.18942261px;line-height:125%;font-family:'DIN 1451 Std';-inkscape-font-specification:'DIN 1451 Std';text-align:start;letter-spacing:0px;word-spacing:0px;writing-mode:lr-tb;text-anchor:start;fill:#666666;fill-opacity:1;stroke:none;stroke-width:0.07722671px;stroke-linecap:butt;stroke-linejoin:miter;stroke-opacity:1"
     d="M 223.48816,156.84851 H 377.1065 v 41.3432 H 262.3994 v 65.25738 q 19.86094,-15.80769 46.20708,-15.80769 16.61835,0 29.99409,6.48521 13.37574,6.07988 21.48225,14.59172 6.07988,6.48521 10.13315,12.97041 4.45857,6.07988 6.89053,14.99704 2.83727,8.91716 4.05324,21.07692 1.62132,12.15976 1.62132,29.99409 0,14.59171 -1.21599,25.13017 -0.81065,10.13314 -3.24259,18.23965 -2.02663,7.70117 -5.26924,13.78106 -3.2426,6.07988 -8.10651,12.15976 -8.91716,11.34911 -24.72486,21.07692 -15.80769,9.7278 -37.69527,9.7278 -14.18639,0 -28.37277,-4.05325 -13.78106,-4.05325 -25.5355,-12.9704 -11.75443,-9.3225 -19.86094,-23.50888 -8.10651,-14.18639 -10.53847,-34.45266 h 41.34319 q 3.24261,15.40236 13.37575,24.72485 10.53846,8.91715 27.96745,8.91715 14.99703,0 23.10354,-5.67455 8.51184,-6.07988 12.15977,-14.99705 4.05325,-9.32247 4.45858,-20.26626 0.81066,-10.94379 0.81066,-21.07693 0,-12.15975 -2.02663,-22.29289 -1.62132,-10.13313 -6.07989,-17.429 -4.45857,-7.29585 -12.97041,-11.34911 -8.10651,-4.45857 -20.67159,-4.45857 -11.75445,0 -21.07693,5.67455 -8.91716,5.26924 -16.21301,18.23965 h -38.91124 z" /><path
     id="path3814"
     style="fill:#000000;fill-opacity:1;fill-rule:nonzero;stroke:none;stroke-width:1.33333325"
     d="m 300.49999,10.633424 c -160.03066,0 -289.926657,130.705516 -289.926657,291.726896 0,161.02139 129.895997,291.72154 289.926657,291.72154 160.03067,0 289.932,-130.70015 289.932,-291.72154 0,-161.02138 -129.90133,-291.726896 -289.932,-291.726896 z m 0,15.092862 c 57.88533,0 111.56267,17.979958 155.844,48.67951 L 73.942665,459.16912 C 43.437332,414.61365 25.567999,360.60402 25.567999,302.36032 25.567999,149.49311 148.57333,25.726286 300.49999,25.726286 Z m 164.90133,55.214383 c 3.02,2.284724 5.98933,4.632502 8.916,7.03797 L 87.437331,477.25372 c -2.390666,-2.94478 -4.724,-5.9325 -6.994666,-8.9712 z m 17.31733,14.232904 c 2.812,2.506086 5.57867,5.063147 8.28667,7.677907 L 102.21866,494.03967 c -2.598662,-2.71941 -5.139996,-5.50319 -7.630662,-8.3326 z m 16.06267,15.507407 c 2.59867,2.7194 5.14,5.50319 7.63067,8.3326 l -388.13066,390.5335 c -2.812,-2.50609 -5.57867,-5.06315 -8.28133,-7.67791 z m 14.78133,16.78058 c 2.39067,2.94479 4.724,5.9325 6.99467,8.97119 L 135.59866,523.77998 c -3.02,-2.28472 -5.99466,-4.6325 -8.916,-7.03796 z m 13.49467,18.08997 c 30.50533,44.56083 48.38,98.5651 48.38,156.80879 0,152.86722 -123.01066,276.62867 -274.93733,276.62867 -57.88,0 -111.56266,-17.97995 -155.84399,-48.67413 z" /></svg>